[gd_scene load_steps=5 format=2]

[ext_resource path="res://GUI/ball_count/ball_count.gd" type="Script" id=1]
[ext_resource path="res://ball/ball.svg" type="Texture" id=2]
[ext_resource path="res://GUI/ball_count/SouthernAire_Personal_Use_Only.ttf" type="DynamicFontData" id=3]

[sub_resource type="DynamicFont" id=1]
size = 100
outline_size = 2
outline_color = Color( 0.980392, 0.0705882, 0.0705882, 1 )
extra_spacing_bottom = 6
font_data = ExtResource( 3 )

[node name="Ball Count" type="HBoxContainer"]
anchor_left = 0.5
anchor_top = 0.5
anchor_right = 0.5
anchor_bottom = 0.5
margin_left = -512.0
margin_top = -300.0
margin_right = -406.0
margin_bottom = -194.0
size_flags_horizontal = 12
size_flags_vertical = 5
script = ExtResource( 1 )
__meta__ = {
"_edit_use_anchors_": false
}

[node name="Label" type="Label" parent="."]
margin_right = 47.0
margin_bottom = 106.0
size_flags_horizontal = 4
custom_fonts/font = SubResource( 1 )
text = "03"
valign = 1
max_lines_visible = 1
__meta__ = {
"_edit_use_anchors_": false
}

[node name="TextureRect" type="TextureRect" parent="."]
margin_left = 51.0
margin_top = 25.0
margin_right = 106.0
margin_bottom = 80.0
grow_horizontal = 2
grow_vertical = 2
size_flags_horizontal = 8
size_flags_vertical = 4
texture = ExtResource( 2 )
stretch_mode = 3
__meta__ = {
"_edit_use_anchors_": false
}
